…
  full_df %>% 
  mutate(
    files = str_replace(files, ".csv", ""),
    group = str_sub(files, 1, 3)) %>% 
  pivot_longer(
    week_1:week_8,
    names_to = "week",
    values_to = "outcome",
    names_prefix = "week_") %>% 
  mutate(week = as.numeric(week)) %>% 
  select(group, subj = files, week, outcome)
tidy_df
```

    ## # A tibble: 160 × 4
    ##    group subj    week outcome
    ##    <chr> <chr>  <dbl>   <dbl>
    ##  1 con   con_01     1    0.2 
    ##  2 con   con_01     2   -1.31
    ##  3 con   con_01     3    0.66
    ##  4 con   con_01     4    1.96
    ##  5 con   con_01     5    0.23
    ##  6 con   con_01     6    1.09
    ##  7 con   con_01     7    0.05
    ##  8 con   con_01     8    1.94
    ##  9 con   con_02     1    1.13
    ## 10 con   con_02     2   -0.88
    ## # … with 150 more rows
…
     return(t_test)
}

output = vector("list", 5000)
for (i in 1:5000) {
  
  output[[i]] = sim(n = 30, mu = 0, sigma = 5) 
     
}

output %>% bind_rows()
```

    ## # A tibble: 5,000 × 2
    ##    estimate p.value
    ##       <dbl>   <dbl>
    ##  1    0.205  0.779 
    ##  2    0.260  0.790 
    ##  3    0.430  0.687 
    ##  4    1.13   0.210 
    ##  5    0.737  0.354 
    ##  6    0.358  0.722 
    ##  7   -0.713  0.364 
    ##  8    0.556  0.608 
    ##  9    0.786  0.432 
    ## 10    1.63   0.0723
    ## # … with 4,990 more rows

- Repeat the above for μ={1,2,3,4,5,6}

``` r
sim_results_df = 
  tibble(mu = c(0, 1, 2, 3, 4, 5, 6)) %>% 
  mutate(
    output_lists = map(.x = mu, ~rerun(5000, sim(n = 30, mu = .x, sigma = 5))),
    estimate_df = map(output_lists, bind_rows)) %>% 
  unnest(estimate_df) %>%
  select(mu, estimate, p.value) 
sim_results_df
```

    ## # A tibble: 35,000 × 3
    ##       mu estimate p.value
    ##    <dbl>    <dbl>   <dbl>
    ##  1     0  -0.499    0.623
    ##  2     0  -0.0900   0.913
    ##  3     0  -0.0858   0.913
    ##  4     0   1.19     0.127
    ##  5     0  -0.484    0.594
    ##  6     0   0.220    0.853
    ##  7     0   0.734    0.365
    ##  8     0  -0.745    0.485
    ##  9     0   0.157    0.825
    ## 10     0  -1.05     0.334
    ## # … with 34,990 more rows
…
